filename,starting_frame,ending_frame,main_attributes_person,secondary_attributes_person,tertiary_attributes_person,upper_x_coordinates,upper_y_coordinates,lower_x_coordinates,lower_y_coordinates
GMT20210812-035717_Recording_gvo_1280x720.mp4,10078,10798,,,Person 1,501.75,139.47,771.05,531.58
GMT20210812-035717_Recording_gvo_1280x720.mp4,10074,10077,,,Person 1,514.1266908742655,139.2251629110851,777.1855580058805,508.9694668115824
GMT20210812-035717_Recording_gvo_1280x720.mp4,9900,10073,,,Person 1,282.72464826904707,233.49104468263477,415.79704999545686,445.3704798133605
GMT20210812-035717_Recording_gvo_1280x720.mp4,9900,10073,,,Person 2,905.6478080083092,250.0609067104334,1033.3766465988354,440.8886743172013
GMT20210812-035717_Recording_gvo_1280x720.mp4,9000,9899,,,Person 1,235.86,241.38999999999984,369.7000000000001,431.1220920533641
GMT20210812-035717_Recording_gvo_1280x720.mp4,9000,9899,,,Person 2,866.604202310727,252.66591928105504,1001.4703359955636,424.4644695581442
GMT20210812-035717_Recording_gvo_1280x720.mp4,8100,8999,,,Person 1,274.0425321019977,252.5590737770508,409.4153664340223,466.6832130031392
GMT20210812-035717_Recording_gvo_1280x720.mp4,8100,8999,,,Person 2,906.0128447175108,245.2843498578813,1046.4082581011464,431.8937424501082
GMT20210812-035717_Recording_gvo_1280x720.mp4,6300,7199,,,Person 1,276.5560089878784,242.1826929551993,412.91,454.85999999999984
GMT20210812-035717_Recording_gvo_1280x720.mp4,7200,8099,,,Person 2,850.39,234.37,984.29,425.17
GMT20210812-035717_Recording_gvo_1280x720.mp4,7200,8099,,,Person 1,276.32,261.4,410.53,467.54
GMT20210812-035717_Recording_gvo_1280x720.mp4,6300,7199,,,Person 2,907.6432768527596,246.4676001488402,1039.90847556608,438.9899999999999
GMT20210812-035717_Recording_gvo_1280x720.mp4,5400,6299,,,Person 1,267.24,242.06704472588356,412.0789641752388,449.29
GMT20210812-035717_Recording_gvo_1280x720.mp4,5400,6299,,,Person 2,862.02,245.29560091891216,993.243031480698,426.69885721923686
GMT20210812-035717_Recording_gvo_1280x720.mp4,4500,5399,,,Person 1,269.5775786167708,229.83292416558152,420.5119600265924,456.5117649219202
GMT20210812-035717_Recording_gvo_1280x720.mp4,4500,5399,,,Person 2,916.6836235306328,251.1986815890988,1051.8677224170926,447.3788622699788
GMT20210812-035717_Recording_gvo_1280x720.mp4,3600,4499,,,Person 1,276.34505175107745,239.28512267204405,413.7690108177384,455.3082263504425
GMT20210812-035717_Recording_gvo_1280x720.mp4,3600,4499,,,Person 2,822.3541037766402,258.02162749595016,962.1510620591398,448.1678064490541
GMT20210812-035717_Recording_gvo_1280x720.mp4,2700,3599,,,Person 1,306.3190512025388,250.90121790068463,440.5508268666478,453.2831302258752
GMT20210812-035717_Recording_gvo_1280x720.mp4,2700,3599,,,Person 2,875.0091730553593,248.9296297340461,1003.5147792201028,399.4066181947085
GMT20210812-035717_Recording_gvo_1280x720.mp4,1800,2699,,,Person 1,295.99838503268893,242.4546334084485,430.266667195424,445.2932553651296
GMT20210812-035717_Recording_gvo_1280x720.mp4,1800,2699,,,Person 2,848.7654139230021,254.49029817820468,980.5197124356256,429.0557592486044
GMT20210812-035717_Recording_gvo_1280x720.mp4,900,1799,,,Person 2,912.1557401901372,238.13966870359604,1052.694796215106,438.5487603913642
GMT20210812-035717_Recording_gvo_1280x720.mp4,900,1799,,,Person 1,282.04731859709364,243.00191780203664,419.72382156498384,443.9265395499932
GMT20210812-035717_Recording_gvo_1280x720.mp4,104,899,,,Person 1,281.9713317237814,260.5832682145348,395.7352454628084,408.14768396428735
