filename,starting_frame,ending_frame,main_attributes_person,secondary_attributes_person,tertiary_attributes_person,upper_x_coordinates,upper_y_coordinates,lower_x_coordinates,lower_y_coordinates
GMT20210823-141103_Recording_gvo_1280x720.mp4,2264,2264,Person 2,,,757.5582163243557,0.0,1084.9299999999996,409.21
GMT20210823-141103_Recording_gvo_1280x720.mp4,1814,1814,Person 2,,,758.79,1.2299999999999898,1084.3099999999995,409.8221516185316
GMT20210823-141103_Recording_gvo_1280x720.mp4,1764,1764,Person 2,,,758.18,1.2299999999999898,1085.55,409.8221516185328
GMT20210823-141103_Recording_gvo_1280x720.mp4,1664,1664,Person 2,,,756.9428720009232,0.0,1085.5399999999995,407.98
GMT20210823-141103_Recording_gvo_1280x720.mp4,2164,2164,Person 2,,,757.5547743106849,0.6209687943732547,1084.9259897543072,407.99
GMT20210823-141103_Recording_gvo_1280x720.mp4,2214,2214,Person 2,,,758.1800000000001,0.0,1084.3141003800558,409.8221516185316
GMT20210823-141103_Recording_gvo_1280x720.mp4,2114,2114,Person 2,,,758.1735670431349,0.6181546911079181,1084.9294769745943,408.6
GMT20210823-141103_Recording_gvo_1280x720.mp4,2064,2064,Person 2,,,758.18,0.6181459608401951,1085.55,408.591449844467
GMT20210823-141103_Recording_gvo_1280x720.mp4,2014,2014,Person 2,,,755.7893782266642,0.0,1085.2831756611904,408.9554140127663
GMT20210823-141103_Recording_gvo_1280x720.mp4,1964,1964,Person 2,,,756.9428721060588,0.0,1085.55,409.83
GMT20210823-141103_Recording_gvo_1280x720.mp4,1864,1864,Person 2,,,758.18,0.0,1084.9299999999996,407.9760923996767
GMT20210823-141103_Recording_gvo_1280x720.mp4,1914,1914,Person 2,,,756.9428529967543,1.2299999999999898,1085.55,409.2095957450085
GMT20210823-141103_Recording_gvo_1280x720.mp4,1714,1714,Person 2,,,756.9462945044311,1.2307271304944152,1084.310613104377,408.6
GMT20210823-141103_Recording_gvo_1280x720.mp4,1614,1614,Person 2,,,758.18,0.62,1084.9299999999998,409.83
GMT20210823-141103_Recording_gvo_1280x720.mp4,1514,1514,Person 2,,,756.942878668694,0.0,1084.32,410.437508929024
GMT20210823-141103_Recording_gvo_1280x720.mp4,1564,1564,Person 2,,,756.9463139384261,0.0,1084.9294507521652,407.98
GMT20210823-141103_Recording_gvo_1280x720.mp4,1464,1464,Person 2,,,758.18,0.0,1084.9299999999996,407.9732950572631
GMT20210823-141103_Recording_gvo_1280x720.mp4,1414,1414,Person 2,,,757.5651780188925,1.2299999999999898,1084.929464207907,407.37
GMT20210823-141103_Recording_gvo_1280x720.mp4,1364,1364,Person 2,,,757.5581970721844,0.0,1084.9299999999996,409.21
GMT20210823-141103_Recording_gvo_1280x720.mp4,1314,1314,Person 2,,,758.79,0.0,1084.9299999999996,406.7481878309245
GMT20210823-141103_Recording_gvo_1280x720.mp4,1264,1264,Person 2,,,757.5582421314605,0.0,1085.55,408.6
GMT20210823-141103_Recording_gvo_1280x720.mp4,1164,1164,Person 2,,,757.561671047561,0.6200000000000045,1084.32,409.2068068720261
GMT20210823-141103_Recording_gvo_1280x720.mp4,1214,1214,Person 2,,,758.1770284480342,0.0,1084.9294315417671,407.37
GMT20210823-141103_Recording_gvo_1280x720.mp4,1114,1114,Person 2,,,757.6459503430847,0.0,1085.550565356121,407.1515889910362
GMT20210823-141103_Recording_gvo_1280x720.mp4,1113,1113,Person 2,,,757.1375400588945,0.0,1084.1631946355735,407.99
GMT20210823-141103_Recording_gvo_1280x720.mp4,1111,1111,Person 2,,,758.4,0.6299999999999955,1085.42,408.6199424846751
GMT20210823-141103_Recording_gvo_1280x720.mp4,1061,1061,Person 2,,,759.02,0.0,1085.41,409.25
GMT20210823-141103_Recording_gvo_1280x720.mp4,1011,1011,Person 2,,,757.14,0.63,1085.42,410.51
GMT20210823-141103_Recording_gvo_1280x720.mp4,961,961,Person 2,,,758.4,0.63,1084.79,408.62
GMT20210823-141103_Recording_gvo_1280x720.mp4,911,911,Person 2,,,757.1400000000001,1.2553767369454931,1084.787268414508,408.62
GMT20210823-141103_Recording_gvo_1280x720.mp4,761,761,Person 2,,,757.1375537602837,0.0028894190858181,1085.41,410.51
GMT20210823-141103_Recording_gvo_1280x720.mp4,811,811,Person 2,,,756.509872166348,1.259999999999991,1084.7908417796964,408.63
GMT20210823-141103_Recording_gvo_1280x720.mp4,861,861,Person 2,,,757.77,0.63,1084.79,407.37
GMT20210823-141103_Recording_gvo_1280x720.mp4,661,661,Person 2,,,758.4,1.26,1084.17,410.51
GMT20210823-141103_Recording_gvo_1280x720.mp4,611,611,Person 2,,,759.02,1.26,1084.16,409.88
GMT20210823-141103_Recording_gvo_1280x720.mp4,711,711,Person 2,,,757.1375538756652,0.6299999999999955,1085.41,409.88
GMT20210823-141103_Recording_gvo_1280x720.mp4,561,561,Person 2,,,758.4,0.63,1085.42,408.62
GMT20210823-141103_Recording_gvo_1280x720.mp4,461,461,Person 2,,,759.02,0.6299999999999955,1085.41,408.61705758662384
GMT20210823-141103_Recording_gvo_1280x720.mp4,511,511,Person 2,,,757.77,0.63,1085.42,409.25
GMT20210823-141103_Recording_gvo_1280x720.mp4,411,411,Person 2,,,758.4,0.63,1085.42,410.51
GMT20210823-141103_Recording_gvo_1280x720.mp4,261,261,Person 2,,,760.28,0.6299999999999955,1087.9299999999998,400.4571828959699
GMT20210823-141103_Recording_gvo_1280x720.mp4,311,311,Person 2,,,768.44,1.259999999999991,1096.0890846931482,397.95
GMT20210823-141103_Recording_gvo_1280x720.mp4,361,361,Person 2,,,757.7652355823818,0.0,1086.05,411.13
GMT20210823-141103_Recording_gvo_1280x720.mp4,111,111,Person 2,,,1019.6900000000004,179.4556449167701,1186.979686951116,379.8299627576562
GMT20210823-141103_Recording_gvo_1280x720.mp4,161,161,Person 2,,,1021.5299999999996,179.46,1186.6144891341323,378.3572838665029
GMT20210823-141103_Recording_gvo_1280x720.mp4,211,211,,,,1025.20712119057,179.4600000000001,1189.185724460031,377.9896095202148
GMT20210823-141103_Recording_gvo_1280x720.mp4,61,61,Person 2,,,1021.1628290136274,180.18999999999983,1185.1364514236157,378.35726100727857
GMT20210823-141103_Recording_gvo_1280x720.mp4,213,213,Person 1,,,255.65000000000003,247.83801507912477,391.4545394549226,456.06
GMT20210823-141103_Recording_gvo_1280x720.mp4,63,63,Person 1,,,237.5492258440128,239.61000000000007,384.46,461.41692255590897
GMT20210823-141103_Recording_gvo_1280x720.mp4,163,163,Person 1,,,255.2369985257092,247.42656048677543,391.0430173801331,456.8903728659008
GMT20210823-141103_Recording_gvo_1280x720.mp4,113,113,Person 1,,,247.82948444014303,251.54,372.9399999999999,442.48
GMT20210823-141103_Recording_gvo_1280x720.mp4,11,11,Person 2,,,1020.7951771539084,179.91022217498733,1185.5131054533713,376.8354675054619
GMT20210823-141103_Recording_gvo_1280x720.mp4,13,13,Person 1,,,239.1917747327429,227.67640389808903,389.804766423398,464.7088243139021
